DogBreedTraits
…
breed_traits

# A tibble: 195 × 17
   breed affec…¹ good_…² good_…³ shedd…⁴ coat_…⁵ drool…⁶ coat_…⁷ coat_…⁸ openn…⁹
   <chr>   <dbl>   <dbl>   <dbl>   <dbl>   <dbl>   <dbl> <chr>   <chr>     <dbl>
 1 Retr…       5       5       5       4       2       2 Double  Short         5
 2 Fren…       5       5       4       3       1       3 Smooth  Short         5
 3 Germ…       5       5       3       4       2       2 Double  Medium        3
 4 Retr…       5       5       5       4       2       2 Double  Medium        5
 5 Bull…       4       3       3       3       3       3 Smooth  Short         4
 6 Pood…       5       5       3       1       4       1 Curly   Long          5
 7 Beag…       3       5       5       3       2       1 Smooth  Short         3
 8 Rott…       5       3       3       3       1       3 Smooth  Short         3
 9 Poin…       5       5       4       3       2       2 Smooth  Short         4
10 Dach…       5       3       4       2       2       2 Smooth  Short         4
# … with 185 more rows, 7 more variables: playfulness_level <dbl>,
#   watchdog_protective_nature <dbl>, adaptability_level <dbl>,
#   trainability_level <dbl>, energy_level <dbl>, barking_level <dbl>,
#   mental_stimulation_needs <dbl>, and abbreviated variable names
#   ¹​affectionate_with_family, ²​good_with_young_children,
#   ³​good_with_other_dogs, ⁴​shedding_level, ⁵​coat_grooming_frequency,
#   ⁶​drooling_level, ⁷​coat_type, ⁸​coat_length, ⁹​openness_to_strangers
…
