Palmer Penguins Initial Analysis
…
What is the ratio of bill length to bill depth for a penguin? What is the overall average of this metric? Does it change by species, sex, or island?

Does average body mass change by year?

Data Manipulation Tools and Strategies

We can look at individual columns in in a data set or subsets of columns in a dataset. If we are only interested in flipper length and species, we can select() those columns

/

penguins %>%
  select(species, body_mass_g)

# A tibble: 44 × 2
   species body_mass_g
   <chr>         <dbl>
 1 Gentoo         6050
 2 Gentoo         5800
 3 Gentoo         5550
 4 Gentoo         5500
 5 Gentoo         5850
 6 Gentoo         5950
 7 Gentoo         5700
 8 Gentoo         5350
 9 Gentoo         5550
10 Gentoo         6300
# … with 34 more rows
…
